
    {
    "questionNumber": 5,
    "totalQuestion": 9,
    "questions":
    [{
        "assessment_question_id": null,
        "id": 202,
        "question_name": "words:3",
        "position": 4,
        "quiz_group_id": null,
        "quiz_id": 34,
        "img": "http://www.thisiscolossal.com/wp-content/uploads/2014/03/120430.gif",
        "question_type": "multiple_choice_question",
        "question_text": "How are you today?",
        "points_possible": 3,
        "correct_comments": "",
        "incorrect_comments": "",
        "neutral_comments": null,
        "answers": [
            {
                "weight": 0,
                "id": 46309,
                "migration_id": "true",
                "text": "True"
            },
            {
                "weight": 100,
                "id": 99391,
                "migration_id": "false",
                "text": "False"
            }
        ],
        "variables": null,
        "formulas": null,
        "matches": null,
        "matching_answer_incorrect_matches": null
    },
    {
        "assessment_question_id": null,
        "id": 239,
        "question_name": "fractions:3",
        "position": 10,
        "quiz_group_id": null,
        "quiz_id": 36,
        "img": "http://www.thisiscolossal.com/wp-content/uploads/2014/03/120430.gif",
        "question_type": "multiple_answers_question",
        "question_text": "בדיקה. בדיקה. בדיקה. בדיקה. בדיקה. בדיקה. בדיקה. בדיקה. בדיקה. בדיקה. בדיקה. בדיקה. בדיקה. בדיקה. בדיקה. בדיקה. בדיקה. בדיקה. בדיקה. בדיקה. בדיקה. בדיקה. אחד שתיים?",
        "points_possible": 2,
        "correct_comments": "",
        "incorrect_comments": "",
        "neutral_comments": null,
        "answers": [
            {
                "weight": 0,
                "id": 59822,
                "migration_id": "X",
                "text": "?האנם בנהה"
            },
            {
                "weight": 100,
                "id": 91678,
                "migration_id": "Y",
                "text": "?האנם בנהה"
            },
            {
                "weight": 100,
                "id": 91278,
                "migration_id": "Y",
                "text": "?האנם בנהה"
            },
            {
                "weight": 100,
                "id": 2678,
                "migration_id": "Y",
                "text": "?האנם בנהה"
            }
        ],
        "variables": null,
        "formulas": null,
        "matches": null,
        "matching_answer_incorrect_matches": null
    }]
}
