{
  "userAverages": [
    {
      "userId": 1,
      "userName": "Dor",
      "averageGrade": 10
    },
    {
      "userId": 2,
      "userName": "Falah",
      "averageGrade": 92
    },
    {
      "userId": 3,
      "userName": "Amir",
      "averageGrade": 12
    },
    {
      "userId": 4,
      "userName": "Chimbabi",
      "averageGrade": 30
    },
    {
      "userId": 5,
      "userName": "Naor",
      "averageGrade": 70
    },
    {
      "userId": 6,
      "userName": "Naor",
      "averageGrade": 92
    },
    {
      "userId": 7,
      "userName": "Naor",
      "averageGrade": 66
    },
    {
      "userId": 8,
      "userName": "Naor",
      "averageGrade": 97
    },
    {
      "userId": 9,
      "userName": "Naor",
      "averageGrade": 65
    },
    {
      "userId": 10,
      "userName": "Naor",
      "averageGrade": 65
    },
    {
      "userId": 11,
      "userName": "Naor",
      "averageGrade": 81
    },
    {
      "userId": 12,
      "userName": "Naor",
      "averageGrade": 77
    },
    {
      "userId": 13,
      "userName": "Naor",
      "averageGrade": 80
    },
    {
      "userId": 14,
      "userName": "Naor",
      "averageGrade": 34
    },
    {
      "userId": 15,
      "userName": "Naor",
      "averageGrade": 84
    }
  ]
}